…
Subset Rows: filter
========================================================
class: medium-code


```r
adsl %>% 
    select(USUBJID, SEX, BWEIGHT) %>% 
    filter(BWEIGHT >= 70, SEX == "M")
```

```
# A tibble: 18 x 3
   USUBJID                 SEX   BWEIGHT
   <chr>                   <chr>   <dbl>
 1 DBTVC15Y2014-0001-00002 M        78.2
 2 DBTVC15Y2014-0002-00002 M        76.0
 3 DBTVC15Y2014-0002-00004 M        86.0
 4 DBTVC15Y2014-0003-00001 M        77.6
 5 DBTVC15Y2014-0004-00001 M        75.0
 6 DBTVC15Y2014-0005-00001 M        77.0
 7 DBTVC15Y2014-0006-00003 M        73.0
 8 DBTVC15Y2014-0006-00004 M        80.0
 9 DBTVC15Y2014-0007-00001 M        70.5
10 DBTVC15Y2014-0007-00002 M        71.0
# ... with 8 more rows
```

Create Columns: mutate
========================================================
class: medium-code


```r
adsl %>% 
    select(SUBJID, BWEIGHT, BHEIGHT) %>% 
    mutate(BHIGHT_M = BHEIGHT/100, BBMI = BWEIGHT/BHIGHT_M^2)
```

```
# A tibble: 46 x 5
   SUBJID BWEIGHT BHEIGHT BHIGHT_M  BBMI
   <chr>    <dbl>   <dbl>    <dbl> <dbl>
 1 00001     67.0    165.     1.65  24.6
 2 00002     78.2    162.     1.62  29.8
 3 00001     56.5    155.     1.55  23.5
 4 00002     76.0    173.     1.73  25.4
 5 00003     68.0    172.     1.72  23.0
 6 00004     86.0    181.     1.81  26.3
 7 00001     77.6    170.     1.70  26.9
 8 00002     67.0    158.     1.58  26.8
 9 00003     57.0    160.     1.60  22.3
10 00001     75.0    172.     1.72  25.4
# ... with 36 more rows
```

Sort: arrange
========================================================
class: medium-code


```r
adsl %>% 
    select(USUBJID, ARM, AGE) %>% 
    arrange(ARM, desc(AGE))
```

```
# A tibble: 46 x 3
   USUBJID                 ARM         AGE
   <chr>                   <chr>     <dbl>
 1 DBTVC15Y2014-0012-00001 Stratum A   83.
 2 DBTVC15Y2014-0003-00001 Stratum A   81.
 3 DBTVC15Y2014-0007-00002 Stratum A   77.
 4 DBTVC15Y2014-0001-00002 Stratum A   76.
 5 DBTVC15Y2014-0008-00001 Stratum A   74.
 6 DBTVC15Y2014-0022-00002 Stratum A   72.
 7 DBTVC15Y2014-0019-00001 Stratum A   71.
 8 DBTVC15Y2014-0043-00001 Stratum A   68.
 9 DBTVC15Y2014-0001-00001 Stratum A   66.
10 DBTVC15Y2014-0009-00004 Stratum A   66.
# ... with 36 more rows
```
…
with **mutate**

```r
avs %>%
  select(SUBJID, PARAMCD, AVAL) %>%
  group_by(SUBJID, PARAMCD) %>%
  mutate(MAX = max(AVAL, na.rm = T)) %>% 
  ungroup()
```

```
# A tibble: 1,411 x 4
   SUBJID PARAMCD  AVAL   MAX
   <chr>  <chr>   <dbl> <dbl>
 1 00001  DIABP     85.   91.
 2 00001  DIABP     78.   91.
 3 00001  DIABP     80.   91.
 4 00001  DIABP     72.   91.
 5 00001  DIABP     78.   91.
 6 00001  DIABP     61.   91.
 7 00001  DIABP     72.   91.
 8 00001  HEIGHT   165.  185.
 9 00001  PULSE     80.  126.
10 00001  PULSE     80.  126.
# ... with 1,401 more rows
```
…
```r
add_count(adsl, ARM, SEX)
```
***

Variable correspondence

```r
avs <- read_sas("data/avs.sas7bdat")
count(avs, PARAMCD, AVALU)
```

```
# A tibble: 14 x 3
   PARAMCD AVALU           n
   <chr>   <chr>       <int>
 1 DIABP   ""             22
 2 DIABP   mmHg          207
 3 HEIGHT  ""              2
 4 HEIGHT  cm             44
 5 PULSE   ""             21
 6 PULSE   BEATS/MIN     208
 7 RESP    ""             61
 8 RESP    BREATHS/MIN   160
 9 SYSBP   ""             22
10 SYSBP   mmHg          207
# ... with 4 more rows
```
…
